<?xml version="1.0" standalone="no"?>
<!DOCTYPE svg PUBLIC "-//W3C//DTD SVG 20010904//EN"
 "http://www.w3.org/TR/2001/REC-SVG-20010904/DTD/svg10.dtd">
<svg version="1.0" xmlns="http://www.w3.org/2000/svg"
 width="260.000000pt" height="260.000000pt" viewBox="0 0 260.000000 260.000000"
 preserveAspectRatio="xMidYMid meet">
<metadata>
Created by potrace 1.11, written by Peter Selinger 2001-2013
</metadata>
<g transform="translate(0.000000,260.000000) scale(0.100000,-0.100000)"
fill="#000000" stroke="none">
<path d="M740 1570 l0 -920 145 0 145 0 0 353 c0 194 5 381 11 417 12 81 55
175 100 219 96 97 290 109 388 24 94 -80 101 -125 101 -620 l0 -394 148 3 147
3 0 455 c-1 510 -3 531 -71 661 -66 125 -177 199 -331 220 -172 25 -331 -27
-437 -142 l-56 -60 0 350 0 351 -145 0 -145 0 0 -920z"/>
<path d="M740 235 l0 -145 590 0 590 0 0 145 0 145 -590 0 -590 0 0 -145z"/>
</g>
</svg>
